%YAML 1.1
%TAG !u! tag:unity3d.com,2011:
--- !u!114 &11400000
MonoBehaviour:
  m_ObjectHideFlags: 0
  m_CorrespondingSourceObject: {fileID: 0}
  m_PrefabInstance: {fileID: 0}
  m_PrefabAsset: {fileID: 0}
  m_GameObject: {fileID: 0}
  m_Enabled: 1
  m_EditorHideFlags: 0
  m_Script: {fileID: 11500000, guid: 0caeee92e8f839b4a9a0bbffbf903861, type: 3}
  m_Name: BulletsCollection
  m_EditorClassIdentifier: 
  type: 1
  items:
  - Item: {fileID: 9217556908442241524, guid: 59677e6fe8cbc2d478fb352a5574fce8, type: 3}
    have: 0
  baseChance: 10
  _chance: {x: 0, y: 0}
