%YAML 1.1
%TAG !u! tag:unity3d.com,2011:
--- !u!114 &11400000
MonoBehaviour:
  m_ObjectHideFlags: 0
  m_CorrespondingSourceObject: {fileID: 0}
  m_PrefabInstance: {fileID: 0}
  m_PrefabAsset: {fileID: 0}
  m_GameObject: {fileID: 0}
  m_Enabled: 1
  m_EditorHideFlags: 0
  m_Script: {fileID: 11500000, guid: 0caeee92e8f839b4a9a0bbffbf903861, type: 3}
  m_Name: StructuresCollection
  m_EditorClassIdentifier: 
  type: 2
  items:
  - Item: {fileID: 4992925240960614004, guid: 3dc6a0205bc0c8b4888726dfbb3c190f, type: 3}
    have: 1
  baseChance: 30
  _chance: {x: 70, y: 100}
