%YAML 1.1
%TAG !u! tag:unity3d.com,2011:
--- !u!1 &6263403504763418799
GameObject:
  m_ObjectHideFlags: 0
  m_CorrespondingSourceObject: {fileID: 0}
  m_PrefabInstance: {fileID: 0}
  m_PrefabAsset: {fileID: 0}
  serializedVersion: 6
  m_Component:
  - component: {fileID: 2509588799424103694}
  m_Layer: 0
  m_Name: Point (1)
  m_TagString: Untagged
  m_Icon: {fileID: 0}
  m_NavMeshLayer: 0
  m_StaticEditorFlags: 0
  m_IsActive: 1
--- !u!4 &2509588799424103694
Transform:
  m_ObjectHideFlags: 0
  m_CorrespondingSourceObject: {fileID: 0}
  m_PrefabInstance: {fileID: 0}
  m_PrefabAsset: {fileID: 0}
  m_GameObject: {fileID: 6263403504763418799}
  m_LocalRotation: {x: -0, y: -0, z: -0, w: 1}
  m_LocalPosition: {x: 0.075, y: 0.15, z: 0}
  m_LocalScale: {x: 1, y: 1, z: 1}
  m_Children: []
  m_Father: {fileID: 6434181393170400929}
  m_RootOrder: 2
  m_LocalEulerAnglesHint: {x: 0, y: 0, z: 0}
--- !u!114 &4295424050818971978
MonoBehaviour:
  m_ObjectHideFlags: 0
  m_CorrespondingSourceObject: {fileID: 0}
  m_PrefabInstance: {fileID: 0}
  m_PrefabAsset: {fileID: 0}
  m_GameObject: {fileID: 6434181393170400928}
  m_Enabled: 1
  m_EditorHideFlags: 0
  m_Script: {fileID: 11500000, guid: 94085b6684fb8ed4eb0f95b0a81abdc5, type: 3}
  m_Name: 
  m_EditorClassIdentifier: 
  enemyGun: 0
  connected: 0
  invunerable: 0
  bullet: {fileID: 5373689455753713463, guid: 7cfc32cecf8b7554b975aec735b04ce1, type: 3}
  point: {fileID: 6434181393331340382}
  lvl: 1
  life: 5
  shotSpeed: 150
  secondBullet: {fileID: 5373689455753713463, guid: 7cfc32cecf8b7554b975aec735b04ce1,
    type: 3}
  secondPoint: {fileID: 2509588799424103694}
--- !u!1001 &7477866991467659797
PrefabInstance:
  m_ObjectHideFlags: 0
  serializedVersion: 2
  m_Modification:
    m_TransformParent: {fileID: 0}
    m_Modifications:
    - target: {fileID: 4507106570715595957, guid: 20642334f115a8a4c823c48ef1331ff8,
        type: 3}
      propertyPath: m_Name
      value: MultipleGun Variant
      objectReference: {fileID: 0}
    - target: {fileID: 4507106570715595956, guid: 20642334f115a8a4c823c48ef1331ff8,
        type: 3}
      propertyPath: m_RootOrder
      value: 0
      objectReference: {fileID: 0}
    - target: {fileID: 4507106570715595956, guid: 20642334f115a8a4c823c48ef1331ff8,
        type: 3}
      propertyPath: m_LocalEulerAnglesHint.x
      value: 0
      objectReference: {fileID: 0}
    - target: {fileID: 4507106570715595956, guid: 20642334f115a8a4c823c48ef1331ff8,
        type: 3}
      propertyPath: m_LocalEulerAnglesHint.y
      value: 0
      objectReference: {fileID: 0}
    - target: {fileID: 4507106570715595956, guid: 20642334f115a8a4c823c48ef1331ff8,
        type: 3}
      propertyPath: m_LocalEulerAnglesHint.z
      value: 0
      objectReference: {fileID: 0}
    - target: {fileID: 4507106570715595953, guid: 20642334f115a8a4c823c48ef1331ff8,
        type: 3}
      propertyPath: m_Color.r
      value: 0.89411765
      objectReference: {fileID: 0}
    - target: {fileID: 4507106570715595953, guid: 20642334f115a8a4c823c48ef1331ff8,
        type: 3}
      propertyPath: m_Color.g
      value: 0.19607843
      objectReference: {fileID: 0}
    - target: {fileID: 4507106570715595953, guid: 20642334f115a8a4c823c48ef1331ff8,
        type: 3}
      propertyPath: m_Color.b
      value: 0
      objectReference: {fileID: 0}
    - target: {fileID: 4051365300621517346, guid: 20642334f115a8a4c823c48ef1331ff8,
        type: 3}
      propertyPath: m_Mass
      value: 0.0256
      objectReference: {fileID: 0}
    - target: {fileID: 4507106571146085963, guid: 20642334f115a8a4c823c48ef1331ff8,
        type: 3}
      propertyPath: m_LocalPosition.x
      value: -0.075
      objectReference: {fileID: 0}
    m_RemovedComponents: []
  m_SourcePrefab: {fileID: 100100000, guid: 20642334f115a8a4c823c48ef1331ff8, type: 3}
--- !u!1 &6434181393170400928 stripped
GameObject:
  m_CorrespondingSourceObject: {fileID: 4507106570715595957, guid: 20642334f115a8a4c823c48ef1331ff8,
    type: 3}
  m_PrefabInstance: {fileID: 7477866991467659797}
  m_PrefabAsset: {fileID: 0}
--- !u!4 &6434181393170400929 stripped
Transform:
  m_CorrespondingSourceObject: {fileID: 4507106570715595956, guid: 20642334f115a8a4c823c48ef1331ff8,
    type: 3}
  m_PrefabInstance: {fileID: 7477866991467659797}
  m_PrefabAsset: {fileID: 0}
--- !u!4 &6434181393331340382 stripped
Transform:
  m_CorrespondingSourceObject: {fileID: 4507106571146085963, guid: 20642334f115a8a4c823c48ef1331ff8,
    type: 3}
  m_PrefabInstance: {fileID: 7477866991467659797}
  m_PrefabAsset: {fileID: 0}
