%YAML 1.1
%TAG !u! tag:unity3d.com,2011:
--- !u!114 &8355814957883318265
MonoBehaviour:
  m_ObjectHideFlags: 0
  m_CorrespondingSourceObject: {fileID: 0}
  m_PrefabInstance: {fileID: 0}
  m_PrefabAsset: {fileID: 0}
  m_GameObject: {fileID: 9217556908442241524}
  m_Enabled: 1
  m_EditorHideFlags: 0
  m_Script: {fileID: 11500000, guid: 92f27044715144f43b28b0aa14550fe5, type: 3}
  m_Name: 
  m_EditorClassIdentifier: 
  enemyBullet: 0
  lvl: 1
  startSpeed: 5
  speed: 5
  startDamage: 1
  damage: 1
  startLife: 3
  life: 0
  startTimeDie: 4
  timeDie: 4
  startScale: {x: 0.25, y: 0.25}
  backForce: 3
--- !u!1001 &1577951632194701445
PrefabInstance:
  m_ObjectHideFlags: 0
  serializedVersion: 2
  m_Modification:
    m_TransformParent: {fileID: 0}
    m_Modifications:
    - target: {fileID: 3931060420353862134, guid: 61a96bc1b5b98c54e8cc60a05c1582d0,
        type: 3}
      propertyPath: m_Color.r
      value: 0
      objectReference: {fileID: 0}
    - target: {fileID: 3931060420353862134, guid: 61a96bc1b5b98c54e8cc60a05c1582d0,
        type: 3}
      propertyPath: m_Color.g
      value: 0.6603774
      objectReference: {fileID: 0}
    - target: {fileID: 3931060420353862134, guid: 61a96bc1b5b98c54e8cc60a05c1582d0,
        type: 3}
      propertyPath: m_Color.b
      value: 0.012410857
      objectReference: {fileID: 0}
    - target: {fileID: 7056601360232113386, guid: 61a96bc1b5b98c54e8cc60a05c1582d0,
        type: 3}
      propertyPath: m_RootOrder
      value: 0
      objectReference: {fileID: 0}
    - target: {fileID: 7056601360232113386, guid: 61a96bc1b5b98c54e8cc60a05c1582d0,
        type: 3}
      propertyPath: m_LocalEulerAnglesHint.x
      value: 0
      objectReference: {fileID: 0}
    - target: {fileID: 7056601360232113386, guid: 61a96bc1b5b98c54e8cc60a05c1582d0,
        type: 3}
      propertyPath: m_LocalEulerAnglesHint.y
      value: 0
      objectReference: {fileID: 0}
    - target: {fileID: 7056601360232113386, guid: 61a96bc1b5b98c54e8cc60a05c1582d0,
        type: 3}
      propertyPath: m_LocalEulerAnglesHint.z
      value: 0
      objectReference: {fileID: 0}
    - target: {fileID: 7641858210102722929, guid: 61a96bc1b5b98c54e8cc60a05c1582d0,
        type: 3}
      propertyPath: m_Name
      value: BoomerangBullet
      objectReference: {fileID: 0}
    m_RemovedComponents: []
  m_SourcePrefab: {fileID: 100100000, guid: 61a96bc1b5b98c54e8cc60a05c1582d0, type: 3}
--- !u!1 &9217556908442241524 stripped
GameObject:
  m_CorrespondingSourceObject: {fileID: 7641858210102722929, guid: 61a96bc1b5b98c54e8cc60a05c1582d0,
    type: 3}
  m_PrefabInstance: {fileID: 1577951632194701445}
  m_PrefabAsset: {fileID: 0}
